IPGTT Analysis - IPGTT Data Cleaning and Analysis
…
Residual standard error: 29.11 on 117 degrees of freedom
  (47 observations deleted due to missingness)
Multiple R-squared:  0.9478,    Adjusted R-squared:  0.946 
F-statistic: 531.3 on 4 and 117 DF,  p-value: < 2.2e-16

IPGTT_data %>% filter(test_week == 1) %>% count(time_point, genotype)

# A tibble: 36 × 3
   time_point genotype     n
        <dbl> <ord>    <int>
 1          0 WT-WT        2
 2          0 Het-NOD      2
 3          0 KO-NOD      10
 4          1 WT-WT        2
 5          1 Het-NOD      2
 6          1 KO-NOD      10
 7          3 WT-WT        2
 8          3 Het-NOD      2
 9          3 KO-NOD      10
10          5 WT-WT        2
# ℹ 26 more rows
…
IPGTT_data_clean <- IPGTT_data %>% filter(test_week == 1) %>% na.omit() 

IPGTT_data_clean$time_point <- as.factor(IPGTT_data_clean$time_point)
IPGTT_data_clean$test_week <- as.factor(IPGTT_data_clean$test_week)

IPGTT_mixed_model <- lmer(glucose_reading ~ time_point * genotype + (1|mouse_id), data = IPGTT_data_clean)

emm <- emmeans(IPGTT_mixed_model, ~  genotype| time_point)

broom.mixed::tidy(emm) 

# A tibble: 36 × 7
   genotype time_point estimate std.error    df statistic   p.value
   <chr>    <chr>         <dbl>     <dbl> <dbl>     <dbl>     <dbl>
 1 WT-WT    0              171.     19.2   47.4      8.90  1.12e-11
 2 Het-NOD  0              113.     19.2   47.4      5.92  3.42e- 7
 3 KO-NOD   0              132.      8.57  47.4     15.4   3.90e-20
 4 WT-WT    1              182.     19.2   47.4      9.47  1.64e-12
 5 Het-NOD  1               NA      NA     NA       NA    NA       
 6 KO-NOD   1              124.      8.93  52.0     13.8   4.76e-19
 7 WT-WT    3              186.     19.2   47.4      9.71  7.56e-13
 8 Het-NOD  3               NA      NA     NA       NA    NA       
 9 KO-NOD   3              127.      9.82  63.5     12.9   2.00e-19
10 WT-WT    5              223.     19.2   47.4     11.6   1.82e-15
# ℹ 26 more rows
…
ggplotly(b)

IPGTT_data_clean_all_weeks <- IPGTT_data %>%  na.omit() 

IPGTT_data_clean_all_weeks$time_point <- as.factor(IPGTT_data_clean_all_weeks$time_point)
IPGTT_data_clean_all_weeks$test_week <- as.factor(IPGTT_data_clean_all_weeks$test_week)

IPGTT_mixed_model <- lmer(glucose_reading ~ time_point * test_week * genotype + (1|mouse_id), data = IPGTT_data_clean_all_weeks)

emm <- emmeans(IPGTT_mixed_model, ~  genotype | test_week| time_point)

broom.mixed::tidy(emm) 

# A tibble: 432 × 8
   genotype test_week time_point estimate std.error    df statistic p.value
   <chr>    <chr>     <chr>         <dbl>     <dbl> <dbl>     <dbl>   <dbl>
 1 WT-WT    1         0             171.      104.   73.2     1.64  0.105  
 2 Het-NOD  1         0             113.      104.   73.2     1.09  0.278  
 3 KO-NOD   1         0             132.       46.4  73.2     2.85  0.00562
 4 WT-WT    2         0             177.      104.   73.2     1.71  0.0922 
 5 Het-NOD  2         0             104.      104.   73.2     1.00  0.319  
 6 KO-NOD   2         0              89.1     135.  203.      0.658 0.511  
 7 WT-WT    3         0             111.      104.   73.2     1.07  0.288  
 8 Het-NOD  3         0             113.      104.   73.2     1.09  0.280  
 9 KO-NOD   3         0             108.      135.  203.      0.799 0.425  
10 WT-WT    4         0             131.      104.   73.2     1.26  0.212  
# ℹ 422 more rows
…
